[gd_scene load_steps=8 format=2]

[ext_resource path="res://gem/gem 1.png" type="Texture" id=1]
[ext_resource path="res://gem/gem 2.png" type="Texture" id=2]
[ext_resource path="res://gem/gem 3.png" type="Texture" id=3]
[ext_resource path="res://Loot.gd" type="Script" id=4]
[ext_resource path="res://sfx/alarm2.ogg" type="AudioStream" id=5]

[sub_resource type="SpriteFrames" id=1]
animations = [ {
"frames": [ ExtResource( 1 ), ExtResource( 2 ), ExtResource( 3 ) ],
"loop": true,
"name": "default",
"speed": 20.0
} ]

[sub_resource type="RectangleShape2D" id=2]
extents = Vector2( 8, 8 )

[node name="Gem" type="Area2D"]
script = ExtResource( 4 )
value = 1000000
alerts_all = true

[node name="AnimatedSprite" type="AnimatedSprite" parent="."]
frames = SubResource( 1 )
frame = 1
playing = true

[node name="CollisionShape2D" type="CollisionShape2D" parent="."]
shape = SubResource( 2 )

[node name="AudioStreamPlayer2D" type="AudioStreamPlayer2D" parent="."]
stream = ExtResource( 5 )
