[gd_scene load_steps=5 format=2]

[ext_resource path="res://npc/npc6.png" type="Texture" id=1]
[ext_resource path="res://NPC.tscn" type="PackedScene" id=2]
[ext_resource path="res://npc/npc5.png" type="Texture" id=3]

[sub_resource type="SpriteFrames" id=1]
animations = [ {
"frames": [ ExtResource( 3 ) ],
"loop": true,
"name": "idle",
"speed": 5.0
}, {
"frames": [ ExtResource( 1 ), ExtResource( 3 ) ],
"loop": true,
"name": "move",
"speed": 5.0
} ]

[node name="NPCMale" instance=ExtResource( 2 )]

[node name="Sprite" parent="." index="1"]
frames = SubResource( 1 )
