[gd_scene load_steps=5 format=2]

[ext_resource path="res://Room.tscn" type="PackedScene" id=1]
[ext_resource path="res://DoorNext.tscn" type="PackedScene" id=2]
[ext_resource path="res://NPC.tscn" type="PackedScene" id=3]
[ext_resource path="res://DoorPrev.tscn" type="PackedScene" id=4]

[node name="RoomEasy3" instance=ExtResource( 1 )]

[node name="TileMap" parent="." index="1"]
tile_data = PoolIntArray( 0, 356, 0, 1, 357, 0, 2, 357, 0, 3, 357, 0, 4, 357, 0, 5, 357, 0, 6, 357, 0, 7, 357, 0, 8, 357, 0, 9, 357, 0, 10, 357, 0, 11, 357, 0, 12, 357, 0, 13, 357, 0, 14, 357, 0, 15, 357, 0, 16, 357, 0, 17, 357, 0, 18, 357, 0, 19, 358, 0, 65536, 377, 0, 65537, 378, 0, 65538, 378, 0, 65539, 378, 0, 65540, 378, 0, 65541, 378, 0, 65542, 378, 0, 65543, 378, 0, 65544, 378, 0, 65545, 378, 0, 65546, 378, 0, 65547, 378, 0, 65548, 378, 0, 65549, 378, 0, 65550, 378, 0, 65551, 378, 0, 65552, 378, 0, 65553, 378, 0, 65554, 378, 0, 65555, 379, 0, 131072, 377, 0, 131073, 378, 0, 131074, 378, 0, 131075, 378, 0, 131076, 378, 0, 131077, 378, 0, 131078, 378, 0, 131079, 378, 0, 131080, 378, 0, 131081, 378, 0, 131082, 378, 0, 131083, 378, 0, 131084, 378, 0, 131085, 378, 0, 131086, 378, 0, 131087, 378, 0, 131088, 378, 0, 131089, 378, 0, 131090, 378, 0, 131091, 379, 0, 196608, 377, 0, 196609, 378, 0, 196610, 378, 0, 196611, 378, 0, 196612, 378, 0, 196613, 378, 0, 196614, 378, 0, 196615, 378, 0, 196616, 378, 0, 196617, 378, 0, 196618, 378, 0, 196619, 378, 0, 196620, 378, 0, 196621, 378, 0, 196622, 378, 0, 196623, 378, 0, 196624, 378, 0, 196625, 378, 0, 196626, 378, 0, 196627, 379, 0, 262144, 377, 0, 262145, 378, 0, 262146, 378, 0, 262147, 378, 0, 262148, 378, 0, 262149, 378, 0, 262150, 378, 0, 262151, 378, 0, 262152, 378, 0, 262153, 378, 0, 262154, 378, 0, 262155, 378, 0, 262156, 378, 0, 262157, 378, 0, 262158, 378, 0, 262159, 378, 0, 262160, 378, 0, 262161, 378, 0, 262162, 378, 0, 262163, 379, 0, 327680, 377, 0, 327681, 378, 0, 327682, 378, 0, 327683, 378, 0, 327684, 378, 0, 327685, 378, 0, 327686, 378, 0, 327687, 378, 0, 327688, 378, 0, 327689, 378, 0, 327690, 378, 0, 327691, 378, 0, 327692, 378, 0, 327693, 378, 0, 327694, 378, 0, 327695, 378, 0, 327696, 378, 0, 327697, 378, 0, 327698, 378, 0, 327699, 379, 0, 393216, 377, 0, 393217, 378, 0, 393218, 378, 0, 393219, 378, 0, 393220, 378, 0, 393221, 378, 0, 393222, 378, 0, 393223, 378, 0, 393224, 378, 0, 393225, 378, 0, 393226, 378, 0, 393227, 378, 0, 393228, 378, 0, 393229, 378, 0, 393230, 378, 0, 393231, 378, 0, 393232, 378, 0, 393233, 378, 0, 393234, 378, 0, 393235, 379, 0, 458752, 377, 0, 458753, 378, 0, 458754, 378, 0, 458755, 378, 0, 458756, 378, 0, 458757, 378, 0, 458758, 378, 0, 458759, 378, 0, 458760, 378, 0, 458761, 378, 0, 458762, 378, 0, 458763, 378, 0, 458764, 378, 0, 458765, 378, 0, 458766, 378, 0, 458767, 378, 0, 458768, 378, 0, 458769, 378, 0, 458770, 378, 0, 458771, 379, 0, 524288, 377, 0, 524289, 378, 0, 524290, 378, 0, 524291, 378, 0, 524292, 378, 0, 524293, 378, 0, 524294, 378, 0, 524295, 378, 0, 524296, 378, 0, 524297, 378, 0, 524298, 378, 0, 524299, 378, 0, 524300, 378, 0, 524301, 378, 0, 524302, 378, 0, 524303, 378, 0, 524304, 378, 0, 524305, 378, 0, 524306, 378, 0, 524307, 379, 0, 589824, 377, 0, 589825, 378, 0, 589826, 378, 0, 589827, 378, 0, 589828, 378, 0, 589829, 378, 0, 589830, 378, 0, 589831, 378, 0, 589832, 378, 0, 589833, 378, 0, 589834, 378, 0, 589835, 378, 0, 589836, 378, 0, 589837, 378, 0, 589838, 378, 0, 589839, 378, 0, 589840, 378, 0, 589841, 378, 0, 589842, 378, 0, 589843, 379, 0, 655360, 410, 0, 655361, 411, 0, 655362, 411, 0, 655363, 411, 0, 655364, 411, 0, 655365, 411, 0, 655366, 411, 0, 655367, 411, 0, 655368, 411, 0, 655369, 411, 0, 655370, 411, 0, 655371, 411, 0, 655372, 411, 0, 655373, 411, 0, 655374, 411, 0, 655375, 411, 0, 655376, 411, 0, 655377, 411, 0, 655378, 411, 0, 655379, 412, 0 )

[node name="DoorPrev" parent="." index="3" instance=ExtResource( 4 )]
position = Vector2( 88, 176 )

[node name="DoorNext" parent="." index="4" instance=ExtResource( 2 )]
position = Vector2( 232, 176 )

[node name="NPC2" parent="." index="5" instance=ExtResource( 3 )]
position = Vector2( 144, 176 )
initial_face = -1
patrol_stop_time = 4.0
patrol_turn_time = 2.0
pickpocket_value = 250
patrol_lines = PoolStringArray( "Fascinating." )
patrol_line_chance = 0.25

[node name="NPC3" parent="." index="6" instance=ExtResource( 3 )]
position = Vector2( 176, 176 )
patrol_turn_time = 2.0
pickpocket_value = 250
patrol_lines = PoolStringArray( "How exquisite." )
patrol_line_chance = 0.25
