[gd_scene load_steps=5 format=2]

[ext_resource path="res://Room.tscn" type="PackedScene" id=1]
[ext_resource path="res://DoorPrev.tscn" type="PackedScene" id=2]
[ext_resource path="res://DoorNext.tscn" type="PackedScene" id=3]
[ext_resource path="res://NPCGuard.tscn" type="PackedScene" id=4]

[node name="RoomHard1" instance=ExtResource( 1 )]

[node name="TileMap" parent="." index="1"]
tile_data = PoolIntArray( 393216, 0, 0, 393217, 1, 0, 393218, 1, 0, 393219, 1, 0, 393220, 1, 0, 393221, 1, 0, 393222, 1, 0, 393223, 1, 0, 393224, 1, 0, 393225, 1, 0, 393226, 1, 0, 393227, 1, 0, 393228, 1, 0, 393229, 1, 0, 393230, 1, 0, 393231, 1, 0, 393232, 1, 0, 393233, 1, 0, 393234, 1, 0, 393235, 2, 0, 458752, 14, 0, 458753, 15, 0, 458754, 15, 0, 458755, 15, 0, 458756, 15, 0, 458757, 15, 0, 458758, 15, 0, 458759, 15, 0, 458760, 15, 0, 458761, 15, 0, 458762, 15, 0, 458763, 15, 0, 458764, 15, 0, 458765, 15, 0, 458766, 15, 0, 458767, 15, 0, 458768, 15, 0, 458769, 15, 0, 458770, 15, 0, 458771, 16, 0, 524288, 14, 0, 524289, 15, 0, 524290, 15, 0, 524291, 15, 0, 524292, 15, 0, 524293, 15, 0, 524294, 15, 0, 524295, 15, 0, 524296, 15, 0, 524297, 15, 0, 524298, 15, 0, 524299, 15, 0, 524300, 15, 0, 524301, 15, 0, 524302, 15, 0, 524303, 15, 0, 524304, 15, 0, 524305, 15, 0, 524306, 15, 0, 524307, 16, 0, 589824, 44, 0, 589825, 45, 0, 589826, 45, 0, 589827, 45, 0, 589828, 45, 0, 589829, 45, 0, 589830, 45, 0, 589831, 45, 0, 589832, 45, 0, 589833, 45, 0, 589834, 45, 0, 589835, 45, 0, 589836, 45, 0, 589837, 45, 0, 589838, 45, 0, 589839, 45, 0, 589840, 45, 0, 589841, 45, 0, 589842, 45, 0, 589843, 46, 0, 655360, 76, 0, 655361, 77, 0, 655362, 77, 0, 655363, 77, 0, 655364, 77, 0, 655365, 77, 0, 655366, 77, 0, 655367, 77, 0, 655368, 77, 0, 655369, 77, 0, 655370, 77, 0, 655371, 77, 0, 655372, 77, 0, 655373, 77, 0, 655374, 77, 0, 655375, 77, 0, 655376, 77, 0, 655377, 77, 0, 655378, 77, 0, 655379, 78, 0 )

[node name="DoorNext" parent="." index="3" instance=ExtResource( 3 )]
position = Vector2( 280, 176 )

[node name="DoorPrev" parent="." index="4" instance=ExtResource( 2 )]
position = Vector2( 48, 176 )

[node name="NPC" parent="." index="5" instance=ExtResource( 4 )]
position = Vector2( 96, 176 )
collision_mask = 3
