[gd_scene load_steps=5 format=2]

[ext_resource path="res://Room.tscn" type="PackedScene" id=1]
[ext_resource path="res://DoorPrev.tscn" type="PackedScene" id=2]
[ext_resource path="res://Gem.tscn" type="PackedScene" id=3]

[sub_resource type="RectangleShape2D" id=1]
extents = Vector2( 96, 8 )

[node name="RoomFinal" instance=ExtResource( 1 )]

[node name="TileMap" parent="." index="1"]
tile_data = PoolIntArray( 196612, 20, 0, 196613, 21, 0, 196614, 21, 0, 196615, 21, 0, 196616, 21, 0, 196617, 21, 0, 196618, 21, 0, 196619, 21, 0, 196620, 21, 0, 196621, 21, 0, 196622, 21, 0, 196623, 22, 0, 262148, 50, 0, 262149, 51, 0, 262150, 51, 0, 262151, 51, 0, 262152, 51, 0, 262153, 51, 0, 262154, 51, 0, 262155, 51, 0, 262156, 51, 0, 262157, 51, 0, 262158, 51, 0, 262159, 52, 0, 327684, 50, 0, 327685, 51, 0, 327686, 51, 0, 327687, 51, 0, 327688, 51, 0, 327689, 51, 0, 327690, 51, 0, 327691, 51, 0, 327692, 51, 0, 327693, 51, 0, 327694, 51, 0, 327695, 52, 0, 393220, 50, 0, 393221, 51, 0, 393222, 51, 0, 393223, 51, 0, 393224, 51, 0, 393225, 51, 0, 393226, 51, 0, 393227, 51, 0, 393228, 51, 0, 393229, 51, 0, 393230, 51, 0, 393231, 52, 0, 458756, 50, 0, 458757, 51, 0, 458758, 51, 0, 458759, 51, 0, 458760, 51, 0, 458761, 51, 0, 458762, 51, 0, 458763, 51, 0, 458764, 51, 0, 458765, 51, 0, 458766, 51, 0, 458767, 52, 0, 524292, 82, 0, 524293, 83, 0, 524294, 83, 0, 524295, 83, 0, 524296, 83, 0, 524297, 83, 0, 524298, 83, 0, 524299, 83, 0, 524300, 83, 0, 524301, 83, 0, 524302, 83, 0, 524303, 84, 0 )

[node name="CollisionPolygon2D" parent="." index="2"]
polygon = PoolVector2Array( 64, 0, -8, 0, -8, 192, 328, 192, 328, 0, 256, 0, 256, 144, 64, 144 )

[node name="DoorPrev" parent="." index="3" instance=ExtResource( 2 )]
position = Vector2( 128, 144 )

[node name="Gem" parent="." index="4" instance=ExtResource( 3 )]
position = Vector2( 192, 112 )

[node name="CollisionShape2D" type="CollisionShape2D" parent="." index="5"]
position = Vector2( 160, 40 )
shape = SubResource( 1 )
