[gd_scene load_steps=5 format=2]

[ext_resource path="res://Room.tscn" type="PackedScene" id=1]
[ext_resource path="res://DoorPrev.tscn" type="PackedScene" id=2]
[ext_resource path="res://DoorNext.tscn" type="PackedScene" id=3]
[ext_resource path="res://NPCGuard.tscn" type="PackedScene" id=4]

[node name="RoomMedium1" instance=ExtResource( 1 )]

[node name="TileMap" parent="." index="1"]
tile_data = PoolIntArray( 0, 368, 0, 1, 369, 0, 2, 369, 0, 3, 369, 0, 4, 369, 0, 5, 369, 0, 6, 369, 0, 7, 369, 0, 8, 369, 0, 9, 369, 0, 10, 369, 0, 11, 369, 0, 12, 369, 0, 13, 369, 0, 14, 369, 0, 15, 369, 0, 16, 369, 0, 17, 369, 0, 18, 369, 0, 19, 370, 0, 65536, 389, 0, 65537, 390, 0, 65538, 390, 0, 65539, 390, 0, 65540, 390, 0, 65541, 390, 0, 65542, 390, 0, 65543, 390, 0, 65544, 390, 0, 65545, 390, 0, 65546, 390, 0, 65547, 390, 0, 65548, 390, 0, 65549, 390, 0, 65550, 390, 0, 65551, 390, 0, 65552, 390, 0, 65553, 390, 0, 65554, 390, 0, 65555, 391, 0, 131072, 389, 0, 131073, 390, 0, 131074, 390, 0, 131075, 390, 0, 131076, 390, 0, 131077, 390, 0, 131078, 390, 0, 131079, 390, 0, 131080, 390, 0, 131081, 390, 0, 131082, 390, 0, 131083, 390, 0, 131084, 390, 0, 131085, 390, 0, 131086, 390, 0, 131087, 390, 0, 131088, 390, 0, 131089, 390, 0, 131090, 390, 0, 131091, 391, 0, 196608, 389, 0, 196609, 390, 0, 196610, 390, 0, 196611, 390, 0, 196612, 390, 0, 196613, 390, 0, 196614, 390, 0, 196615, 390, 0, 196616, 390, 0, 196617, 390, 0, 196618, 390, 0, 196619, 390, 0, 196620, 390, 0, 196621, 390, 0, 196622, 390, 0, 196623, 390, 0, 196624, 390, 0, 196625, 390, 0, 196626, 390, 0, 196627, 391, 0, 262144, 389, 0, 262145, 390, 0, 262146, 390, 0, 262147, 390, 0, 262148, 390, 0, 262149, 390, 0, 262150, 390, 0, 262151, 390, 0, 262152, 390, 0, 262153, 390, 0, 262154, 390, 0, 262155, 390, 0, 262156, 390, 0, 262157, 390, 0, 262158, 390, 0, 262159, 390, 0, 262160, 390, 0, 262161, 390, 0, 262162, 390, 0, 262163, 391, 0, 327680, 389, 0, 327681, 390, 0, 327682, 390, 0, 327683, 390, 0, 327684, 390, 0, 327685, 390, 0, 327686, 390, 0, 327687, 390, 0, 327688, 390, 0, 327689, 390, 0, 327690, 390, 0, 327691, 390, 0, 327692, 390, 0, 327693, 390, 0, 327694, 390, 0, 327695, 390, 0, 327696, 390, 0, 327697, 390, 0, 327698, 390, 0, 327699, 391, 0, 393216, 389, 0, 393217, 390, 0, 393218, 390, 0, 393219, 390, 0, 393220, 390, 0, 393221, 390, 0, 393222, 390, 0, 393223, 390, 0, 393224, 390, 0, 393225, 390, 0, 393226, 390, 0, 393227, 390, 0, 393228, 390, 0, 393229, 390, 0, 393230, 390, 0, 393231, 390, 0, 393232, 390, 0, 393233, 390, 0, 393234, 390, 0, 393235, 391, 0, 458752, 389, 0, 458753, 390, 0, 458754, 390, 0, 458755, 390, 0, 458756, 390, 0, 458757, 390, 0, 458758, 390, 0, 458759, 390, 0, 458760, 390, 0, 458761, 390, 0, 458762, 390, 0, 458763, 390, 0, 458764, 390, 0, 458765, 390, 0, 458766, 390, 0, 458767, 390, 0, 458768, 390, 0, 458769, 390, 0, 458770, 390, 0, 458771, 391, 0, 524288, 389, 0, 524289, 390, 0, 524290, 390, 0, 524291, 390, 0, 524292, 390, 0, 524293, 390, 0, 524294, 390, 0, 524295, 390, 0, 524296, 390, 0, 524297, 390, 0, 524298, 390, 0, 524299, 390, 0, 524300, 390, 0, 524301, 390, 0, 524302, 390, 0, 524303, 390, 0, 524304, 390, 0, 524305, 390, 0, 524306, 390, 0, 524307, 391, 0, 589824, 389, 0, 589825, 390, 0, 589826, 390, 0, 589827, 390, 0, 589828, 390, 0, 589829, 390, 0, 589830, 390, 0, 589831, 390, 0, 589832, 390, 0, 589833, 390, 0, 589834, 390, 0, 589835, 390, 0, 589836, 390, 0, 589837, 390, 0, 589838, 390, 0, 589839, 390, 0, 589840, 390, 0, 589841, 390, 0, 589842, 390, 0, 589843, 391, 0, 655360, 422, 0, 655361, 423, 0, 655362, 423, 0, 655363, 423, 0, 655364, 423, 0, 655365, 423, 0, 655366, 423, 0, 655367, 423, 0, 655368, 423, 0, 655369, 423, 0, 655370, 423, 0, 655371, 423, 0, 655372, 423, 0, 655373, 423, 0, 655374, 423, 0, 655375, 423, 0, 655376, 423, 0, 655377, 423, 0, 655378, 423, 0, 655379, 424, 0 )

[node name="DoorNext" parent="." index="3" instance=ExtResource( 3 )]
position = Vector2( 296, 176 )

[node name="DoorPrev" parent="." index="4" instance=ExtResource( 2 )]
position = Vector2( 64, 176 )

[node name="NPC" parent="." index="5" instance=ExtResource( 4 )]
position = Vector2( 96, 176 )
collision_mask = 3
