[gd_resource type="Theme" load_steps=3 format=2]

[ext_resource path="res://m3x6.ttf" type="DynamicFontData" id=1]

[sub_resource type="DynamicFont" id=1]
outline_size = 1
outline_color = Color( 0, 0, 0, 1 )
font_data = ExtResource( 1 )

[resource]
default_font = SubResource( 1 )
